HW2
…
HW2

Question 1

1A: We will be manipulating the country_population data in this
question. Your goal is the following: Select only rows for years between
1990 and 2010 (inclusive). Then, compute the mean population across all
the years of a country for each country (defining a new variable called
mean_population, via the group_by() and summarize() functions).

country_population %>% subset(year >= 1990 &
                                year <= 2010) %>% group_by(country) %>% summarize(mean_population = mean(year))
#> # A tibble: 215 × 2
#>    country             mean_population
#>    <chr>                         <dbl>
#>  1 Afghanistan                    2000
#>  2 Albania                        2000
#>  3 Algeria                        2000
#>  4 American Samoa                 2000
#>  5 Andorra                        2000
#>  6 Angola                         2000
#>  7 Antigua and Barbuda            2000
#>  8 Argentina                      2000
#>  9 Armenia                        2000
#> 10 Aruba                          2000
#> # ℹ 205 more rows
…
country_birth %>% subset(year >= 1990 &
                           year <= 2010) %>% 
  select(iso3c, year, life_expect) %>% 
  drop_na(iso3c, year, life_expect) %>% 
  group_by(iso3c) %>% 
  summarize(min_life_expect = min(life_expect), 
            max_life_expect = max(life_expect)) %>% 
  mutate(range_life_expect = max_life_expect-min_life_expect)
#> # A tibble: 203 × 4
#>    iso3c min_life_expect max_life_expect range_life_expect
#>    <chr>           <dbl>           <dbl>             <dbl>
#>  1 ABW              73.4            75.0              1.56
#>  2 AFG              49.9            59.0              9.11
#>  3 AGO              41.1            50.7              9.52
#>  4 ALB              71.9            77.0              5.14
#>  5 ARE              71.7            76.7              4.96
#>  6 ARG              71.5            75.5              3.94
#>  7 ARM              67.7            74.2              6.49
#>  8 ATG              71.2            75.3              4.15
#>  9 AUS              77.0            81.7              4.70
#> 10 AUT              75.6            80.6              5.01
#> # ℹ 193 more rows
…
